365,https://str1.castradios.com.br:10980/;?1703281582601
89 FM Rádio Rock,https://22823.live.streamtheworld.com/RADIO_89FM_ADP.aac?1703282476026
93 FM Fortaleza,http://zoeweb.net:8176/stream?1703282410503
Almanaque do Samba,https://stm6.mestrestream.xyz:7924/stream?1703288222074
Alternativa,http://stm9.xcast.com.br:9078/stream?1703287315162
Ametista Soul,https://hts09.kshost.com.br:8404/live?1703286109540
Amigos do Clube da Cidade,https://s17.maxcast.com.br:8127/live?1703287860258
Antena 1,https://antenaone.crossradio.com.br/stream/1;?1703281739767
Anos Dourados,http://stm1.xcast.com.br:7882/;?1703285363608
Apenas Acústico,https://server02.ouvir.radio.br:8100/stream?1703280642867
Aparecida,https://aparecida.jmvstream.com/stream?1703280760985
Areia Branca,https://stm3.mestrestream.xyz:7780/;?1703287372298
Ativa,http://hts07.kshost.com.br:9762/stream?1703287418921
Atmosferic Marte,http://stm2.voxtreaming.com.br:6730/stream?1703286028149
Avaré,https://s01.w3bserver.com:20064/stream?1703288058512
Bailes do Sul,https://stm6.conectastreaming.com:7228/stream?1703288900514
Band News SP,https://24383.live.streamtheworld.com/BANDNEWSFM_SPAAC.aac?dist=radios.com.br&1703287121752
Band BA,https://8048.brasilstream.com.br/stream?1703288644399
Bach Rádio,http://server02.ouvir.radio.br:8050/stream?1703281102222
Barra Funda,http://hts04.kshost.com.br:12858/;?1703281315443
Batuta,http://radioims.out.airtime.pro:8000/radioims_a?1703288248549
Bons Tempos FM,https://server02.ouvir.radio.br:8050/stream?1703280172820
Bossa Jazz Brasil,https://centova5.transmissaodigital.com:20104/stream/1/
Bossa Nova Brazil,http://54.38.43.201:8009/stream-128kmp3-BossaNovaBrazil
Brasil Alemanha,http://srv1.braudio.com.br:7594/stream?1703288131722
Cachoeiro,http://shout25.crossradio.com.br:8136/stream?1703288538086
Campeche,http://hts04.kshost.com.br:8324/stream?1703287459633
Caravela de Além Mar,https://stm15.voxhd.com.br:8614/stream?1703285154769
Carnaval Carioca,https://live9.livemus.com.br:27448/;?1703281361486
Carnaval Total,https://stm23.xcast.com.br:12718/stream?1703281433504
CBN Belém,https://stream2.cbnamazonia.com.br/cbn-blm?1703282139938
CBN São Paulo,https://27413.live.streamtheworld.com/CBN_SPAAC.aac?dist=radioscombr&1703282032147
CBN Vale do Itajaí,https://servidor28.brlogic.com:8112/live?1703282088376
Canastra,https://s46.maxcast.com.br:8232/live?1703288580635
Central DJ,https://streaming.inweb.com.br/centraldj?1703285479327
Cidade,http://server02.ouvir.radio.br:8060/stream?1703288837891
Cidade Verde,https://ssl1.transmissaodigital.com:20010/;?1703282987294
Cinderela,https://servidor29-3.brlogic.com:8250/live?1703287504409
Cinema,http://server02.ouvir.radio.br:8050/stream?1703285615657
Clube,http://stm4.xcast.com.br:8938/stream?1703288701739
Condomínio,https://live10.livemus.com.br:27514/live?1703284851195
Conexão do Samba,https://s04.maxcast.com.br:8092/live?1703288319188
Cultura,https://radiocultura.jmvstream.com/stream?1703286424481
Disco Dance 80,https://stm1.srvif.com:6676/;?1703285061575
Educativa,http://143.208.11.104:8948/stream?1703286185415
Era do Rádio,https://servidor36.brlogic.com:8120/live?1703285407877
Escala,https://live10.livemus.com.br:27672/stream?1703283791491
Estação Amado Batista,http://stream-158.zeno.fm/uc96azq68nhvv?zs=314m8wWFTQWAu9UWPPB2tA&1703285547495
Estação do Carnaval,http://stm21.srvaudio.com.br:9868/;?1703281488376
Eurodance 90,https://stream-155.zeno.fm/pdgmg8eu8k0uv?zs=_w8RJSqoQUOveNyf5PHRag
Fan,http://69.30.202.98:7114/stream?1703281637585
Funk,https://funkyradio.streamingmedia.it/brasil
Gramado,https://stream02.ouveai.com.br:7006/stream?1703287544260
Games BR,http://stream.zeno.fm/su8s94fatd0uv?1703285747396
Globo RJ,https://27443.live.streamtheworld.com/RADIO_GLOBO_RJAAC.aac?dist=radioscombr&1703288470495
Gold Instrumental,https://centova.svdns.com.br:19373/stream/1/
Hospício,http://stream-152.zeno.fm/6ac48er11xhvv?zs=ujsllC7HR_CIbeWqeebODg&1703286895344
Hunter,https://live.hunter.fm/sertanejo_high?origin=/country
Informa Tudo,http://centova.svdns.com.br:8931/stream?1703281195788
Instrumental,https://stm8.mestrestream.xyz:8176/;?1703283728394
João Pessoa,https://serv3.audiovox.pw:7084/stream?1703285288734
Jovem Pan,https://26513.live.streamtheworld.com/JP_SP_FMAAC.aac?1703281944515
Legal,http://stm7.stream.agenciasjc.com.br:9996/;?1703286962157
Liga do Black,https://servidor19.brlogic.com:7082/live?1703287817360
Macho Véi,http://stream-159.zeno.fm/du1k78mkehruv?zs=iJWuZokIQpWt3qwFDlyQ8g&1703286841663
Medonho,https://audio8.cmaudioevideo.com/proxy/radio100/stream?1703287017916
Minas,http://centova.jmvstream.com:9816/stream?1703282868621
Mistura Fina,https://s01.maxcast.com.br:8879/live?1703287278677
Mix,https://26683.live.streamtheworld.com/MIXFM_SAOPAULOAAC.aac?1703285226665
Mução Forró,https://f11.fabricahost.com.br/mucaofm?f=1703287112N01HJ9X5H66KXS825S8DN3V3EZY&tid=01HJ4SE8S04VBC9NDQDX3MFMDX
Mundial,http://server05.srvsh.com.br:7348/stream/1/
Natalina,https://stream-162.zeno.fm/wcbgw2mkeuhvv?zs=c74k3AtJRQaD4pn2p0wFGw&1703284908162
Nemesis Web Rádio,https://servidor39-2.brlogic.com:8616/live?1703280927356
Nacional 790,https://stm17.xcast.com.br:12334/stream?1703283496465
Nova Geração FM,https://www.appradio.app:8152/live?1703280476720
Nova Revolução,https://stm6.xcast.com.br:11762/stream?1703287901810
O Melhor do Futebol,https://s22.maxcast.com.br:8102/live?1703282251011
Portal do Gueto,https://servidor27.brlogic.com:7022/live?identifier=Aplicativos&source=4173&1703287966124
Referência do Samba,https://stm6.srvvox.com.br:7290/stream?1703282338407
Ressignificando Momentos,https://stm9.srvvox.com.br:7796/stream?1703286238658
Romiporã,http://audio8.cmaudioevideo.com:8618/stream?1703287589585
Rural,http://stm1.streaminghd.net.br:7242/stream?1703287650049
Saudade,https://24223.live.streamtheworld.com/SAUDAde_FMAAC.aac?dist=radios.com.br&1703281695494
Sertaneja Raiz Só Modão,https://s22.maxcast.com.br:8034/live?1703282552077
Sertanejo Bom Demais,http://192.99.79.240:8173/stream?1703282598081
Soar,https://hts05.kshost.com.br:13552/live?1703288393040
Som das Chuvas,http://stream.zeno.fm/jozuofqzgsotv?1703286328845
Som da Natureza,https://stream-153.zeno.fm/dkzhhpn1krruv?zs=H_l1ofsYSLmeUITQxmTiNQ&1703286276273
Super Amazônia Brasil,https://s11.maxcast.com.br:8050/live?1703282938367
Taquarituba,https://sonicpanel.oficialserver.com/9986/stream?1703287697647
Toada,https://s44.maxcast.com.br:8100/live?1703282791949
Transcontinental,https://f63.fabricahost.com.br/transcontinentalsp48?f=1703289059N01HJ9Z0YEA080W4GGGGKTDRKDN&tid=01HJ4SE8S04VBC9NDQDX3MFMDX
Transamérica,https://27343.live.streamtheworld.com/RT_SPAAC.aac?1703282196008
Treze de Maio,https://stream2.svrdedicado.org/8188/stream?1703282742655
Tribuna,http://station.radionanet.com:6060/1;?1703283208847
Tropical House 98,https://ssl.painelcast.com:6928/stream?1703285924315
União,http://cast4.hoost.com.br:9565/stream?1703287740722
USP,https://flow.emm.usp.br:8008/radiousp-128.mp3?1703283587409
Vibz,https://stream-162.zeno.fm/1xxqqbeufzzuv?zs=fINsTGF6Qletq2eJ2B4jww
Web MK,https://stream-150.zeno.fm/w8wd299f798uv?zs=b3AsJ8PyQzms4wwqFdB4Qg&1703283295225

